%YAML 1.1
%TAG !u! tag:unity3d.com,2011:
--- !u!114 &-7876373386770348417
MonoBehaviour:
  m_ObjectHideFlags: 3
  m_CorrespondingSourceObject: {fileID: 0}
  m_PrefabInstance: {fileID: 0}
  m_PrefabAsset: {fileID: 0}
  m_GameObject: {fileID: 0}
  m_Enabled: 1
  m_EditorHideFlags: 0
  m_Script: {fileID: 11500000, guid: d65e486e4de6e5448a8fbb43dc8756a0, type: 3}
  m_Name: Grain
  m_EditorClassIdentifier: 
  active: 1
  enabled:
    overrideState: 1
    value: 1
  colored:
    overrideState: 0
    value: 1
  intensity:
    overrideState: 1
    value: 0.01
  size:
    overrideState: 0
    value: 1
  lumContrib:
    overrideState: 0
    value: 0.8
--- !u!114 &-1026697213413039772
MonoBehaviour:
  m_ObjectHideFlags: 3
  m_CorrespondingSourceObject: {fileID: 0}
  m_PrefabInstance: {fileID: 0}
  m_PrefabAsset: {fileID: 0}
  m_GameObject: {fileID: 0}
  m_Enabled: 1
  m_EditorHideFlags: 0
  m_Script: {fileID: 11500000, guid: 9b77c5407dc277943b591ade9e6b18c5, type: 3}
  m_Name: LensDistortion
  m_EditorClassIdentifier: 
  active: 1
  enabled:
    overrideState: 1
    value: 1
  intensity:
    overrideState: 0
    value: 0
  intensityX:
    overrideState: 0
    value: 1
  intensityY:
    overrideState: 0
    value: 1
  centerX:
    overrideState: 0
    value: 0
  centerY:
    overrideState: 0
    value: 0
  scale:
    overrideState: 0
    value: 1
--- !u!114 &11400000
MonoBehaviour:
  m_ObjectHideFlags: 0
  m_CorrespondingSourceObject: {fileID: 0}
  m_PrefabInstance: {fileID: 0}
  m_PrefabAsset: {fileID: 0}
  m_GameObject: {fileID: 0}
  m_Enabled: 1
  m_EditorHideFlags: 0
  m_Script: {fileID: 11500000, guid: 8e6292b2c06870d4495f009f912b9600, type: 3}
  m_Name: PostProcessing Profile
  m_EditorClassIdentifier: 
  settings:
  - {fileID: 5995730924059247582}
  - {fileID: 4789241097553833899}
  - {fileID: 4947748903556660407}
  - {fileID: -7876373386770348417}
  - {fileID: -1026697213413039772}
--- !u!114 &4789241097553833899
MonoBehaviour:
  m_ObjectHideFlags: 3
  m_CorrespondingSourceObject: {fileID: 0}
  m_PrefabInstance: {fileID: 0}
  m_PrefabAsset: {fileID: 0}
  m_GameObject: {fileID: 0}
  m_Enabled: 1
  m_EditorHideFlags: 0
  m_Script: {fileID: 11500000, guid: 7a34fa72bd4185749832024e9c8010bf, type: 3}
  m_Name: ScreenSpaceReflections
  m_EditorClassIdentifier: 
  active: 1
  enabled:
    overrideState: 1
    value: 1
  preset:
    overrideState: 0
    value: 2
  maximumIterationCount:
    overrideState: 0
    value: 16
  resolution:
    overrideState: 0
    value: 0
  thickness:
    overrideState: 0
    value: 8
  maximumMarchDistance:
    overrideState: 0
    value: 100
  distanceFade:
    overrideState: 0
    value: 0.5
  vignette:
    overrideState: 0
    value: 0.5
--- !u!114 &4947748903556660407
MonoBehaviour:
  m_ObjectHideFlags: 3
  m_CorrespondingSourceObject: {fileID: 0}
  m_PrefabInstance: {fileID: 0}
  m_PrefabAsset: {fileID: 0}
  m_GameObject: {fileID: 0}
  m_Enabled: 1
  m_EditorHideFlags: 0
  m_Script: {fileID: 11500000, guid: 6050e2d5de785ce4d931e4dbdbf2d755, type: 3}
  m_Name: ChromaticAberration
  m_EditorClassIdentifier: 
  active: 1
  enabled:
    overrideState: 1
    value: 1
  spectralLut:
    overrideState: 0
    value: {fileID: 0}
    defaultState: 1
  intensity:
    overrideState: 1
    value: 0.1
  fastMode:
    overrideState: 0
    value: 0
--- !u!114 &5995730924059247582
MonoBehaviour:
  m_ObjectHideFlags: 3
  m_CorrespondingSourceObject: {fileID: 0}
  m_PrefabInstance: {fileID: 0}
  m_PrefabAsset: {fileID: 0}
  m_GameObject: {fileID: 0}
  m_Enabled: 1
  m_EditorHideFlags: 0
  m_Script: {fileID: 11500000, guid: c1cb7e9e120078f43bce4f0b1be547a7, type: 3}
  m_Name: AmbientOcclusion
  m_EditorClassIdentifier: 
  active: 1
  enabled:
    overrideState: 1
    value: 1
  mode:
    overrideState: 0
    value: 1
  intensity:
    overrideState: 1
    value: 1
  color:
    overrideState: 0
    value: {r: 0, g: 0, b: 0, a: 1}
  ambientOnly:
    overrideState: 0
    value: 1
  noiseFilterTolerance:
    overrideState: 0
    value: 0
  blurTolerance:
    overrideState: 0
    value: -4.6
  upsampleTolerance:
    overrideState: 0
    value: -12
  thicknessModifier:
    overrideState: 0
    value: 1
  directLightingStrength:
    overrideState: 0
    value: 0
  radius:
    overrideState: 0
    value: 0.25
  quality:
    overrideState: 0
    value: 2
